{
  "menu1": "Перевод",
  "menu2": "Редактирование",
  "menu3": "Разработка",
  "menu4": "О компании",

  "welcome3": "ARCINSET OÜ",
  "welcome1": "Сфокусированы на удовлетворении нужд и позитивном опыте клиента.",
  "welcome0": "Максимальная эффективность и польза - вот, что ArcInset предлагает клиенту в сфере перевода и редактирования текста, а также разработки приложений.",
  "learnmore": "Узнать больше",
  "translation": "Переводческие услуги",
  "translation-description": "Выражайте свои мысли...<br/>подходящим способом",
  "translation-text": "Специалисты ArcInset переводят как маленькие тексты с жёсткими дедлайнами, так и сложную, объёмную техническую документацию.",
  "editing": "Редактура",
  "editing-description": "Правила не были созданы,<br/>чтобы их нарушать",
  "editing-text": "Редакторы ArcInset тщательно и скрупулёзно проверят каждое написанное слово, чтобы Вас больше не беспокоили ошибки.",
  "development": "Разработка приложений",
  "development-description": "Лучшее приложение -<br/>полезное приложение",
  "development-text": "Совсем скоро ArcInset запустит совершенно разные приложения: от игр до изучения языков.",

  "translation-page-title": "Переводческие услуги",
  "translation-page-text": "Точный перевод – важный аспект во время разработки любых настольных или мобильных приложений. Мы прилагаем все усилия, чтобы обеспечить наших клиентов лучшими переводами в установленные сроки.",
  "translation-page-pricelist": "<a href='./documents/ArcInset-прайслист.pdf' download>Цены</a>",
  "translation-page-subtopic-img1": "Переводы",
  "translation-page-subtopic-text1": "ArcInset специализируется на переводах с русского языка на английский и с английского на русский. Все тексты проходят многоступенчатый процесс <text class='important'>перевода, стилистической правки и локализации</text>. Если Вам необходим перевод научной работы, которую нужно срочно опубликовать, или локализация приложения, ArcInset сделает это для Вас.",
  "translation-page-subtopic-img2": "Субтитрование",
  "translation-page-subtopic-text2": "Возможно, Вы популярный блогер или журналист и хотите расширить аудиторию. В этом случае ArcInset может не только <text class='important'>создать для Вашего видео субтитры</text> на языке оригинала, но и перевести их в случае необходимости.",
  "translation-page-subtopic-img3": "Транскрибирование",
  "translation-page-subtopic-text3": "Если Вам необходимо <text class='important'>точно расшифровать</text> аудиозапись, запись выступления на конференции или видео на YouTube и перевести их в текст, ArcInset поможет Вам. Просто отправьте нам файл или ссылку, укажите дату, к которой необходимо сделать расшифровку, и Вы получите результат в указанный срок.",
  "translation-img-descr": "Перевод",
  "subtitling-img-descr": "Субтитрование",
  "transcription-img-descr": "Транскрибирование",


  "editing-page-title": "Редактирование",
  "editing-page-text": "Пословица гласит: «Одна голова хорошо, а две - лучше.» Она отлично характеризует процесс проверки текста на предмет ошибок и опечаток. Практически всегда две или три пары глаз лучше одной. ArcInset предлагает услуги редактирования, а также проверки формата и содержания текстов, в зависимости от Ваших требований.",
  "editing-page-pricelist": "<a href='./documents/ArcInset-прайслист.pdf' download>Цены</a>",
  "editing-page-subtopic-img1": "Редакторская правка",
  "editing-page-subtopic-text1": "Может оказаться сложным писать в различных форматах: научные публикации, бизнес-отчёты, технические тексты. Возможно, Вы хотите написать документацию для API вашего приложения или планируете опубликовать электронную книгу. Команда ArcInset всегда готова выслушать Ваши требования и помочь Вам написать <text class='important'>именно тот текст, который Вам нужен.</text>",
  "editing-page-subtopic-img2": "Копирайтинг",
  "editing-page-subtopic-text2": "Если перевести фразу с одного языка на дуругой, она порой теряет первоначальный смысл. ArcInset предлагает услуги <text class='important'>локализации и копирайтинга</text>, чтобы Вы могли правильно довести информацию до вашей аудитории.",
  "editing-page-subtopic-img3": "Корректорская правка",
  "editing-page-subtopic-text3": "Даже самые грамотные люди порой совершают ошибки при письме. Например, можно случайно перепутать «одеть» или «надеть». Среди других распространённых ошибок – некорректное использование «не» или «ни», пунктуационные неточности. В любом языке существует множество тонкостей, которые сложно учитывать даже в том случае, если для Вас этот язык родной. Команда ArcInset найдет и <text class='important'>исправит все мелкие недочёты в Вашем тексте</text>, чтобы он выглядел безупречно.",
  "editing-img-descr": "Правка",
  "copywriting-img-descr": "Копирайтинг",
  "proofreading-img-descr": "Корректура",


  "development-page-title": "Разработка",
  "development-page-text": "В данный момент ArcInset разрабатывает несколько различных настольных и мобильных приложений. К сожалению, процесс разработки пока не завершен. Оставайтесь с нами, в ближайшее время мы планируем выпустить несколько новых продуктов.",
  "development-page-text2": "Следите за нашими новостями в социальных сетях:",

  "about-page-text": "ArcInset специализируется на разработке <text class='important'>программного обеспечения</text>, настольных, мобильных приложений и веб-сервисов.",
  "about-page-text2": "На определенных этапах разработки: создание графического интерфейса, локализация, написание документации – важно корректное использование языка. ArcInset предоставляет услуги <text class='important'>перевода и редактирования</text> во множестве сфер от коррекции научных работ и бизнес-отчётов до локализации приложений.",
  "about-page-contact": "Свяжитесь с нами для получения <text class='important'>бесплатной консультации</text>, и мы приложим все усилия, чтобы найти лучшее решение для ваших нужд: "
}